Alignment of Cooperative and Competitive Communities • fsmc
…
glimpse(coop_tb)
#> Rows: 51,854
#> Columns: 5
#> $ community   <chr> "coop_0", "coop_0", "coop_0", "coop_0", "coop_0", "coop_0"…
#> $ species     <chr> "Rothia_nasimurium_PT_32", "Exiguobacterium_sibiricum_255_…
#> $ metabolites <chr> "acald", "acald", "ala__D", "ala__D", "ala__L", "ala__L", …
#> $ fluxes      <dbl> 1, -1, 1, -1, 1, -1, 1, -1, 1, -1, 1, -1, 1, -1, 1, -1, 1,…
#> $ smetana     <dbl> 0.0128, -0.0128, 0.0096, -0.0096, 0.0352, -0.0352, 0.0128,…

coop_tb %>% 
  group_by(community) %>% 
  summarise(n_species = length(unique(species)))
#> # A tibble: 100 × 2
#>    community n_species
#>    <chr>         <int>
#>  1 coop_0           10
#>  2 coop_1           10
#>  3 coop_10          10
#>  4 coop_11          10
#>  5 coop_12          10
#>  6 coop_13          10
#>  7 coop_14          10
#>  8 coop_15          10
#>  9 coop_16          10
#> 10 coop_17          10
#> # ℹ 90 more rows
…
glimpse(comp_tb)
#> Rows: 32,306
#> Columns: 5
#> $ community <chr> "comp_0", "comp_0", "comp_0", "comp_0", "comp_0", "comp_0", …
#> $ species   <chr> "Bacillus_circulans_NBRC_13626", "Solirubrobacter_soli_DSM_2…
#> $ compound  <chr> "4abut", "4abut", "acald", "acald", "ala__L", "ala__L", "co2…
#> $ flux      <dbl> 1, -1, 1, -1, 1, -1, 1, -1, 1, -1, 1, -1, 1, -1, 1, -1, 1, -…
#> $ smetana   <dbl> 0.210000000, -0.210000000, 0.040000000, -0.040000000, 0.0500…

comp_tb %>% 
  group_by(community) %>% 
  summarise(n_species = length(unique(species)))
#> # A tibble: 100 × 2
#>    community n_species
#>    <chr>         <int>
#>  1 comp_0           10
#>  2 comp_1           10
#>  3 comp_10          10
#>  4 comp_11          10
#>  5 comp_12          10
#>  6 comp_13          10
#>  7 comp_14          10
#>  8 comp_15          10
#>  9 comp_16          10
#> 10 comp_17          10
#> # ℹ 90 more rows
…
