Experiment 1 • fsmc
…
Create a MiCo Object

fsmc contains a set of example data that can be used for
the analysis of microbial communities. For this example, we will use
data created by MiSoS(oup). Two example
communities are provided in the package ac_A1R12_1 and
cit_A1R12_1.

The MiCo function can take either a path to a .csv file
or a data frame/tibble as input.

# Inspect the data 
ac_A1R12_1
#> # A tibble: 28 × 3
#>    metabolites species  fluxes
#>    <chr>       <chr>     <dbl>
#>  1 ac          A1R12     0.773
#>  2 ac          I2R16   -10.8  
#>  3 acald       A1R12    -1.12 
#>  4 acald       I2R16     1.12 
#>  5 ala__D      A1R12     0.760
#>  6 ala__D      I2R16    -0.760
#>  7 ala__L      A1R12     1.22 
#>  8 ala__L      I2R16    -1.22 
#>  9 asp__L      A1R12    -0.583
#> 10 asp__L      I2R16     0.583
#> # ℹ 18 more rows
cit_A1R12_1
#> # A tibble: 38 × 3
#>    metabolites species    fluxes
#>    <chr>       <chr>       <dbl>
#>  1 ac          A1R12    10.1    
#>  2 ac          m_1A01  -10.1    
#>  3 acald       A1R12     8.31   
#>  4 acald       m_1A01   -8.31   
#>  5 ala__D      A1R12     1.30   
#>  6 ala__D      m_1A01   -1.30   
#>  7 ala__L      A1R12     1.90   
#>  8 ala__L      m_1A01   -1.90   
#>  9 arg__L      A1R12    -0.00286
#> 10 arg__L      m_1A01    0.00286
#> # ℹ 28 more rows
…
